[
  {
    "name": "Каталог",
    "href": "/catalog/all"
  },
  {
    "name": "Распродажа",
    "href": "/catalog/sale"
  },
  {
    "name": "Новости",
    "href": "/news"
  },
  {
    "name": "Акции",
    "href": "/actions"
  },
  {
    "name": "О компании",
    "href": "/sections/barouge/about"
  },
  {
    "name": "Контакты",
    "href": "/contacts"
  }
]
