<svg width="44" height="44" viewBox="0 0 44 44" fill="none" xmlns="http://www.w3.org/2000/svg">
  <path d="M38.5002 34.8333H42.1668V38.5H1.8335V34.8333H5.50016V7.33333C5.50016 6.8471 5.69332 6.38079 6.03713 6.03697C6.38095 5.69315 6.84727 5.5 7.3335 5.5H25.6668C26.1531 5.5 26.6194 5.69315 26.9632 6.03697C27.307 6.38079 27.5002 6.8471 27.5002 7.33333V34.8333H31.1668V16.5H36.6668C37.1531 16.5 37.6194 16.6932 37.9632 17.037C38.307 17.3808 38.5002 17.8471 38.5002 18.3333V34.8333ZM12.8335 20.1667V23.8333H20.1668V20.1667H12.8335ZM12.8335 12.8333V16.5H20.1668V12.8333H12.8335Z" fill="#7A7B7C"/>
</svg>
