{
  "details": {
    "count": "2",
    "summ": "5000",
    "discount": "462",
    "totalSumm": "4538"
  },
  "products": [
    {
      "id": "01",
      "name": "Тестовый товар 1",
      "code": "BT-420F",
      "href": "/products/french-press-la-cafe",
      "maxCount": "30",
      "curCount": "3",
      "color": {
        "hex": "#000",
        "name": "Черный"
      },
      "measure": {
        "name": "ед.",
        "count": "1"
      },
      "price": "750",
      "discount": "10",
      "value": "300",
      "image": "/assets/images/product/product-adrenalin-black/pr_large_1.jpg"
    },
    {
      "id": "02",
      "name": "Тестовый товар 2",
      "code": "BT-420F",
      "href": "/products/french-press-la-cafe",
      "maxCount": "30",
      "curCount": "3",
      "color": {
        "hex": "/assets/images/color-haki.jpg",
        "name": "Хаки"
      },
      "measure": {
        "name": "ед.",
        "count": "3"
      },
      "price": "750",
      "discount": "5",
      "value": "600",
      "image": "/assets/images/product/product-adrenalin-blue/pr_large_3.jpg"
    }
  ]
}
