{
  "total": 0,
  "products": [
    {
      "id": 0,
      "inCart": false,
      "count": 0,
      "href": "/products/termos-adrenalin-black",
      "parent": {
        "name": "Термосы",
        "href": "/catalog/termos"
      },
      "title": "Термос ADRENALIN, нержавеющая сталь с ручкой 1000 мл",
      "series": "ADRENALIN",
      "description": "Термос ADRENALIN ЧЕрный- TRAVEL это яркая - красивая индивидуальная упаковка, современный дизайн,",
      "category": "",
      "color": {
        "hex": "#000",
        "name": "Черный",
        "color": "black"
      },
      "colors": [],
      "volume": "1000мл",
      "volumes": [],
      "measure": "мл",
      "packaging": 20,
      "vendor": "BT-417F (черный)",
      "price": 500,
      "discount": 10,
      "liked": 5,
      "inStock": true,
      "totalCount": 1500,
      "material": "Нержавеющая сталь",
      "filters": [
        {
          "material": "metal"
        },
        {
          "tourism": true
        },
        {
          "color": "black"
        },
        {
          "sale": true
        },
        {
          "series": "adrenalin"
        },
        {
          "new": true
        }
      ],
      "images": [
        {
          "image": "/upload/catalog/termos/adrenalin_black/BT417F_black_2.jpg",
          "color": null
        },
        {
          "image": "/upload/catalog/termos/adrenalin_black/BT417F_black_3.jpg",
          "color": null
        },
        {
          "image": "/upload/catalog/termos/adrenalin_black/BT417F_black_4.jpg",
          "color": null
        }
      ],
      "preview": "/upload/catalog/termos/adrenalin_black/BT417F_black_2.jpg",
      "stickers": [
        {
          "title": "Лидер продаж",
          "tag": "Hit",
          "class": "hit"
        },
        {
          "title": "Распродажа",
          "tag": "-15%",
          "class": "discount"
        },
        {
          "title": "Новинка",
          "tag": "New",
          "class": "new"
        }
      ],
      "information": {
        "common": [
          {
            "key": "Бренд",
            "val": "Barouge"
          },
          {
            "key": "Страна",
            "val": "Россия"
          },
          {
            "key": "Артикул",
            "val": "BT-420F"
          },
          {
            "key": "Доступный объем",
            "val": "300 - 1000 мл."
          },
          {
            "key": "Кол-во в упаковке",
            "val": "24 шт."
          },
          {
            "key": "Состав",
            "val": "Пластик, силикон, нержавеющая сталь"
          }
        ],
        "description": [
          {
            "title": "Описание товара",
            "content": "Lorem ipsum dolor sit amet, consectetur adipisicing elit"
          },
          {
            "title": "Индивидуальная коробка",
            "content": "Lorem ipsum dolor sit amet, consectetur adipisicing elit"
          },
          {
            "title": "Транспортная упаковка",
            "content": "Lorem ipsum dolor sit amet, consectetur adipisicing elit"
          },
          {
            "title": "Сроки доставки",
            "content": "Lorem ipsum dolor sit amet, consectetur adipisicing elit"
          },
          {
            "title": "Оформление",
            "content": "Lorem ipsum dolor sit amet, consectetur adipisicing elit"
          }
        ]
      },
      "connected": [
        {
          "id": 0,
          "href": "/products/termos-adrenalin-black",
          "preview": "/upload/catalog/termos/adrenalin_black/BT417F_black_2.jpg",
          "name": "termos-adrenalin-black"
        },
        {
          "id": 1,
          "href": "/products/termos-adrenalin-blue",
          "preview": "/upload/catalog/termos/adrenalin_blue/BT417F_dblue_2.jpg",
          "name": "termos-adrenalin-blue"
        },
        {
          "id": 2,
          "href": "/products/termos-adrenalin-red",
          "preview": "/upload/catalog/termos/adrenalin_red/BT417F_red_3.jpg",
          "name": "termos-adrenalin-red"
        }
      ]
    },
    {
      "id": 1,
      "inCart": false,
      "count": 0,
      "href": "/products/termos-adrenalin-blue",
      "name": "termos-adrenalin-blue",
      "parent": {
        "name": "Термосы",
        "href": "/catalog/termos"
      },
      "title": "Термос ADRENALIN, нержавеющая сталь с ручкой 1000 мл",
      "series": "ADRENALIN",
      "description": "Термос ADRENALIN Синий- TRAVEL это яркая - красивая индивидуальная упаковка, современный дизайн,",
      "category": "",
      "color": {
        "hex": "#0000FF",
        "name": "Синий",
        "color": "blue"
      },
      "colors": [],
      "volume": "1000мл",
      "volumes": [],
      "measure": "мл",
      "packaging": 20,
      "vendor": "BT-417F (Синий)",
      "price": 550,
      "discount": 5,
      "liked": 8,
      "inStock": true,
      "totalCount": 1500,
      "material": "Нержавеющая сталь",
      "filters": [
        {
          "material": "metal"
        },
        {
          "tourism": true
        },
        {
          "color": "blue"
        },
        {
          "sale": true
        },
        {
          "series": "adrenalin"
        },
        {
          "new": true
        }
      ],
      "images": [
        {
          "image": "/upload/catalog/termos/adrenalin_blue/BT417F_dblue.jpg",
          "color": null
        },
        {
          "image": "/upload/catalog/termos/adrenalin_blue/BT417F_dblue_2.jpg",
          "color": null
        },
        {
          "image": "/upload/catalog/termos/adrenalin_blue/BT417F_dblue_3.jpg",
          "color": null
        },
        {
          "image": "/upload/catalog/termos/adrenalin_blue/BT417F_dblue_4.jpg",
          "color": null
        },
        {
          "image": "/upload/catalog/termos/adrenalin_blue/BT417F_dblue_5.jpg",
          "color": null
        },
        {
          "image": "/upload/catalog/termos/adrenalin_blue/BT417F_dblue_6.jpg",
          "color": null
        }
      ],
      "preview": "/upload/catalog/termos/adrenalin_blue/BT417F_dblue_2.jpg",
      "stickers": [
        {
          "title": "Лидер продаж",
          "tag": "Hit",
          "class": "hit"
        },
        {
          "title": "Распродажа",
          "tag": "-15%",
          "class": "discount"
        },
        {
          "title": "Новинка",
          "tag": "New",
          "class": "new"
        }
      ],
      "information": {
        "common": [
          {
            "key": "Бренд",
            "val": "Barouge"
          },
          {
            "key": "Страна",
            "val": "Россия"
          },
          {
            "key": "Артикул",
            "val": "BT-420F"
          },
          {
            "key": "Доступный объем",
            "val": "300 - 1000 мл."
          },
          {
            "key": "Кол-во в упаковке",
            "val": "24 шт."
          },
          {
            "key": "Состав",
            "val": "Пластик, силикон, нержавеющая сталь"
          }
        ],
        "description": [
          {
            "title": "Описание товара",
            "content": "Lorem ipsum dolor sit amet, consectetur adipisicing elit"
          },
          {
            "title": "Индивидуальная коробка",
            "content": "Lorem ipsum dolor sit amet, consectetur adipisicing elit"
          },
          {
            "title": "Транспортная упаковка",
            "content": "Lorem ipsum dolor sit amet, consectetur adipisicing elit"
          },
          {
            "title": "Сроки доставки",
            "content": "Lorem ipsum dolor sit amet, consectetur adipisicing elit"
          },
          {
            "title": "Оформление",
            "content": "Lorem ipsum dolor sit amet, consectetur adipisicing elit"
          }
        ]
      },
      "connected": [
        {
          "id": 0,
          "href": "/products/termos-adrenalin-black",
          "preview": "/upload/catalog/termos/adrenalin_black/BT417F_black_2.jpg",
          "name": "termos-adrenalin-black"
        },
        {
          "id": 1,
          "href": "/products/termos-adrenalin-blue",
          "preview": "/upload/catalog/termos/adrenalin_blue/BT417F_dblue_2.jpg",
          "name": "termos-adrenalin-blue"
        },
        {
          "id": 2,
          "href": "/products/termos-adrenalin-red",
          "preview": "/upload/catalog/termos/adrenalin_red/BT417F_red_3.jpg",
          "name": "termos-adrenalin-red"
        }
      ]
    },
    {
      "id": 2,
      "inCart": false,
      "count": 0,
      "href": "/products/termos-adrenalin-red",
      "name": "termos-adrenalin-red",
      "parent": {
        "name": "Термосы",
        "href": "/catalog/termos"
      },
      "title": "Термос ADRENALIN, нержавеющая сталь с ручкой 1000 мл",
      "series": "ADRENALIN",
      "description": "Термос ADRENALIN Красный- TRAVEL это яркая - красивая индивидуальная упаковка, современный дизайн,",
      "category": "",
      "color": {
        "hex": "#FF0000",
        "name": "Красный",
        "color": "red"
      },
      "colors": [],
      "volume": "1000мл",
      "volumes": [],
      "measure": "мл",
      "packaging": 20,
      "vendor": "BT-417F (красный)",
      "price": 600,
      "discount": 0,
      "liked": 2,
      "inStock": true,
      "totalCount": 1200,
      "material": "Нержавеющая сталь",
      "filters": [
        {
          "material": "metal"
        },
        {
          "tourism": true
        },
        {
          "color": "red"
        },
        {
          "sale": true
        },
        {
          "series": "adrenalin"
        },
        {
          "new": true
        }
      ],
      "images": [
        {
          "image": "/upload/catalog/termos/adrenalin_red/BT417F_red_3.jpg",
          "color": null
        },
        {
          "image": "/upload/catalog/termos/adrenalin_red/BT417F_red_4.jpg",
          "color": null
        },
        {
          "image": "/upload/catalog/termos/adrenalin_red/BT417F_red_7.jpg",
          "color": null
        },
        {
          "image": "/upload/catalog/termos/adrenalin_red/BT417F_red_8.jpg",
          "color": null
        }
      ],
      "preview": "/upload/catalog/termos/adrenalin_red/BT417F_red_3.jpg",
      "stickers": [
        {
          "title": "Лидер продаж",
          "tag": "Hit",
          "class": "hit"
        },
        {
          "title": "Распродажа",
          "tag": "-15%",
          "class": "discount"
        },
        {
          "title": "Новинка",
          "tag": "New",
          "class": "new"
        }
      ],
      "information": {
        "common": [
          {
            "key": "Бренд",
            "val": "Barouge"
          },
          {
            "key": "Страна",
            "val": "Россия"
          },
          {
            "key": "Артикул",
            "val": "BT-420F"
          },
          {
            "key": "Доступный объем",
            "val": "300 - 1000 мл."
          },
          {
            "key": "Кол-во в упаковке",
            "val": "24 шт."
          },
          {
            "key": "Состав",
            "val": "Пластик, силикон, нержавеющая сталь"
          }
        ],
        "description": [
          {
            "title": "Описание товара",
            "content": "Lorem ipsum dolor sit amet, consectetur adipisicing elit"
          },
          {
            "title": "Индивидуальная коробка",
            "content": "Lorem ipsum dolor sit amet, consectetur adipisicing elit"
          },
          {
            "title": "Транспортная упаковка",
            "content": "Lorem ipsum dolor sit amet, consectetur adipisicing elit"
          },
          {
            "title": "Сроки доставки",
            "content": "Lorem ipsum dolor sit amet, consectetur adipisicing elit"
          },
          {
            "title": "Оформление",
            "content": "Lorem ipsum dolor sit amet, consectetur adipisicing elit"
          }
        ]
      },
      "connected": [
        {
          "id": 0,
          "href": "/products/termos-adrenalin-black",
          "preview": "/upload/catalog/termos/adrenalin_black/BT417F_black_2.jpg",
          "name": "termos-adrenalin-black"
        },
        {
          "id": 1,
          "href": "/products/termos-adrenalin-blue",
          "preview": "/upload/catalog/termos/adrenalin_blue/BT417F_dblue_2.jpg",
          "name": "termos-adrenalin-blue"
        },
        {
          "id": 2,
          "href": "/products/termos-adrenalin-red",
          "preview": "/upload/catalog/termos/adrenalin_red/BT417F_red_3.jpg",
          "name": "termos-adrenalin-red"
        }
      ]
    },
    {
      "id": 3,
      "inCart": false,
      "count": 0,
      "href": "/products/french-press-market-place-black-300",
      "parent": {
        "name": "Френч-прессы",
        "href": "/catalog/french-press"
      },
      "title": "Френч Пресс Market Price пластик черный 300 мл, BF-770",
      "series": "Market Price",
      "description": "Френч-пресс Barouge упакован в яркую, красивую индивидуальной упаковкой, что позволяет выбрать наш продукт как подарок, а обертывание пупырчатой пленкой дополнительно сбережет покупку. ",
      "category": "",
      "color": {
        "hex": "#000",
        "name": "Черный",
        "color": "black"
      },
      "colors": [
        {
          "color": "black",
          "name": "Черный",
          "hex": "#000"
        },
        {
          "color": "red",
          "name": "Красный",
          "hex": "#FF0000"
        },
        {
          "color": "violet",
          "name": "Фиолетовый",
          "hex": "#FF00F0"
        },
        {
          "color": "green",
          "name": "Зеленый",
          "hex": "#38FF38"
        }
      ],
      "volume": "300мл",
      "volumes": [
        {
          "volume": "300мл",
          "price": 400,
          "colors": ["black", "red"],
          "vendor": "BF-770 (300мл. черный)",
          "discount": 0,
          "title": "Френч Пресс Market Price пластик черный 300 мл, BF-770"
        },
        {
          "volume": "600мл",
          "price": 600,
          "colors": ["black", "red", "violet"],
          "vendor": "BF-770 (600мл. черный)",
          "discount": 10,
          "title": "Френч Пресс Market Price пластик черный 600 мл, BF-770"
        },
        {
          "volume": "800мл",
          "price": 750,
          "colors": ["black", "red", "violet", "green"],
          "vendor": "BF-770 (800мл. черный)",
          "discount": 10,
          "title": "Френч Пресс Market Price пластик черный 800 мл, BF-770"
        },
        {
          "volume": "1000мл",
          "price": 850,
          "colors": ["black", "green"],
          "vendor": "BF-770 (1000мл. черный)",
          "discount": 10,
          "title": "Френч Пресс Market Price пластик черный 1000 мл, BF-770"
        }
      ],
      "measure": "мл",
      "packaging": 20,
      "vendor": "BT-417F (черный)",
      "price": 400,
      "discount": 0,
      "liked": 5,
      "inStock": true,
      "totalCount": 1500,
      "material": "Пластик",
      "filters": [
        {
          "material": "plastic"
        },
        {
          "color": "black"
        },
        {
          "sale": true
        },
        {
          "series": "Market_Price"
        },
        {
          "new": false
        }
      ],
      "images": [
        {
          "image": "/upload/catalog/french-press/Market_Price/BF770_black.jpg",
          "color": "black"
        },
        {
          "image": "/upload/catalog/french-press/Market_Price/BF770_red.jpg",
          "color": "red"
        },
        {
          "image": "/upload/catalog/french-press/Market_Price/BF770_violet.jpg",
          "color": "violet"
        },
        {
          "image": "/upload/catalog/french-press/Market_Price/BF772_green.jpg",
          "color": "green"
        }
      ],
      "preview": "/upload/catalog/french-press/Market_Price/BF770_300_black.jpg",
      "stickers": [
        {
          "title": "Лидер продаж",
          "tag": "Hit",
          "class": "hit"
        },
        {
          "title": "Распродажа",
          "tag": "-15%",
          "class": "discount"
        },
        {
          "title": "Новинка",
          "tag": "New",
          "class": "new"
        }
      ],
      "information": {
        "common": [
          {
            "key": "Бренд",
            "val": "Barouge"
          },
          {
            "key": "Страна",
            "val": "Россия"
          },
          {
            "key": "Артикул",
            "val": "BT-420F"
          },
          {
            "key": "Доступный объем",
            "val": "300 - 1000 мл."
          },
          {
            "key": "Кол-во в упаковке",
            "val": "24 шт."
          },
          {
            "key": "Состав",
            "val": "Пластик, силикон, нержавеющая сталь"
          }
        ],
        "description": [
          {
            "title": "Описание товара",
            "content": "Lorem ipsum dolor sit amet, consectetur adipisicing elit"
          },
          {
            "title": "Индивидуальная коробка",
            "content": "Lorem ipsum dolor sit amet, consectetur adipisicing elit"
          },
          {
            "title": "Транспортная упаковка",
            "content": "Lorem ipsum dolor sit amet, consectetur adipisicing elit"
          },
          {
            "title": "Сроки доставки",
            "content": "Lorem ipsum dolor sit amet, consectetur adipisicing elit"
          },
          {
            "title": "Оформление",
            "content": "Lorem ipsum dolor sit amet, consectetur adipisicing elit"
          }
        ]
      }
    }
  ]
}
