[
  {
    "id": 0,
    "name": "Товары из стекла",
    "image": "/assets/images/categories/glass_kuvsh.jpeg",
    "href": "/catalog/?material=steklo"
  },
  {
    "id": 1,
    "name": "Товары для туризма",
    "image": "/assets/images/categories/tourizm.jpeg",
    "href": "/catalog/?tourizm=true"
  },
  {
    "id": 2,
    "name": "Товары из керамики",
    "image": "/assets/images/categories/keramika.jpeg",
    "href": "/catalog/?material=keramika"
  },
  {
    "id": 3,
    "name": "Товары для детей",
    "image": "/assets/images/categories/children.jpeg",
    "href": "/catalog/?children=true"
  },
  {
    "id": 4,
    "name": "Товары для туризма",
    "image": "/assets/images/categories/tourizm2.jpeg",
    "href": "/catalog/?tourizm=true"
  }
]
