{
  "id": 3,
  "inCart": false,
  "count": 0,
  "href": "/products/french-press-market-place-black-300",
  "parent": {
    "name": "Френч-прессы",
    "href": "/catalog/french-press"
  },
  "title": "Френч Пресс Market Price пластик черный 300 мл, BF-770",
  "series": "Market Price",
  "description": "Френч-пресс Barouge упакован в яркую, красивую индивидуальной упаковкой, что позволяет выбрать наш продукт как подарок, а обертывание пупырчатой пленкой дополнительно сбережет покупку. ",
  "category": "",
  "color": {
    "hex": "#000",
    "name": "Черный",
    "color": "black"
  },
  "colors": [
    {
      "color": "black",
      "name": "Черный",
      "hex": "#000"
    },
    {
      "color": "red",
      "name": "Красный",
      "hex": "#FF0000"
    },
    {
      "color": "violet",
      "name": "Фиолетовый",
      "hex": "#FF00F0"
    },
    {
      "color": "green",
      "name": "Зеленый",
      "hex": "#38FF38"
    }
  ],
  "volume": "300мл",
  "volumes": [
    {
      "volume": "300мл",
      "price": 400,
      "colors": ["black", "red"],
      "vendor": "BF-770 (300мл. черный)",
      "discount": 0,
      "title": "Френч Пресс Market Price пластик черный 300 мл, BF-770"
    },
    {
      "volume": "600мл",
      "price": 600,
      "colors": ["black", "red", "violet"],
      "vendor": "BF-770 (600мл. черный)",
      "discount": 10,
      "title": "Френч Пресс Market Price пластик черный 600 мл, BF-770"
    },
    {
      "volume": "800мл",
      "price": 750,
      "colors": ["black", "red", "violet", "green"],
      "vendor": "BF-770 (800мл. черный)",
      "discount": 10,
      "title": "Френч Пресс Market Price пластик черный 800 мл, BF-770"
    },
    {
      "volume": "1000мл",
      "price": 850,
      "colors": ["black", "green"],
      "vendor": "BF-770 (1000мл. черный)",
      "discount": 10,
      "title": "Френч Пресс Market Price пластик черный 1000 мл, BF-770"
    }
  ],
  "measure": "мл",
  "packaging": 20,
  "vendor": "BT-417F (черный)",
  "price": 400,
  "discount": 0,
  "liked": 5,
  "inStock": true,
  "totalCount": 1500,
  "material": "Пластик",
  "filters": [
    {
      "material": "plastic"
    },
    {
      "colors": "black"
    },
    {
      "sale": true
    },
    {
      "series": "Market_Price"
    },
    {
      "new": false
    }
  ],
  "images": [
    {
      "image": "/upload/catalog/french-press/Market_Price/BF770_black.jpg",
      "color": "black"
    },
    {
      "image": "/upload/catalog/french-press/Market_Price/BF770_red.jpg",
      "color": "red"
    },
    {
      "image": "/upload/catalog/french-press/Market_Price/BF770_violet.jpg",
      "color": "violet"
    },
    {
      "image": "/upload/catalog/french-press/Market_Price/BF772_green.jpg",
      "color": "green"
    }
  ],
  "preview": "/upload/catalog/french-press/Market_Price/BF770_black.jpg",
  "stickers": [
    {
      "title": "Лидер продаж",
      "tag": "Hit",
      "class": "hit"
    },
    {
      "title": "Распродажа",
      "tag": "-15%",
      "class": "discount"
    },
    {
      "title": "Новинка",
      "tag": "New",
      "class": "new"
    }
  ],
  "information": {
    "common": [
      {
        "key": "Бренд",
        "val": "Barouge"
      },
      {
        "key": "Страна",
        "val": "Россия"
      },
      {
        "key": "Артикул",
        "val": "BT-420F"
      },
      {
        "key": "Доступный объем",
        "val": "300 - 1000 мл."
      },
      {
        "key": "Кол-во в упаковке",
        "val": "24 шт."
      },
      {
        "key": "Состав",
        "val": "Пластик, силикон, нержавеющая сталь"
      }
    ],
    "description": [
      {
        "title": "Описание товара",
        "content": "Lorem ipsum dolor sit amet, consectetur adipisicing elit"
      },
      {
        "title": "Индивидуальная коробка",
        "content": "Lorem ipsum dolor sit amet, consectetur adipisicing elit"
      },
      {
        "title": "Транспортная упаковка",
        "content": "Lorem ipsum dolor sit amet, consectetur adipisicing elit"
      },
      {
        "title": "Сроки доставки",
        "content": "Lorem ipsum dolor sit amet, consectetur adipisicing elit"
      },
      {
        "title": "Оформление",
        "content": "Lorem ipsum dolor sit amet, consectetur adipisicing elit"
      }
    ]
  }
}
